{
  "type": "service_account",
  "project_id": "next-283218",
  "private_key_id": "efe01ca1e93bce3a930c2f1e9e03a656683962cf",
  "private_key": "-----BEGIN PRIVATE KEY-----\nMIIEvQIBADANBgkqhkiG9w0BAQEFAASCBKcwggSjAgEAAoIBAQDG9TkV03IEqzwL\n/bC/YENXSf4P/T5nOui12mqvSDIXh32Gt7x3exmYEdyeuKpag8T13IK8dbuhvvfz\n0fK1GiRvNWc20SFQsxfsVux1XvnOkezYUvJCK1AnmjuKQCBL/SxQoKaRYl246n4T\nDuKwDXy/FmUQkwFJe6Jr1K7hj3+out/WsdvaCWIblXGIN1HUvHaiuvuzBIq0KVFi\n3EUcbYLEqX3L/BLYRdwJOnO1OaoLQCM+X3IPqAjuOrJ0VxVVlN+byRWgnf90ez4g\nzEQe+YjAAV8OE5tMLMkTHPfoRhyLfG3RID21g2gktfNCbrSdIND8BzqFNg6c1fAS\nNwo75Q2tAgMBAAECggEAJoZBQXqp70GA5QmAee4X3AUVzt7IgJClkuDyG3KtUGUJ\n51YYhkIt2IZM4+b6BYDSWJEUN43MgStLM8kJaAvh1i7PB4xDGS80iKzkKG31jQww\ngkq9Yhak9KYmtURpfI1PUWVqG2iioTW2p9YQCurxpsadVzI/44yvDJYoLsDshS0i\njNN/Fj2sQvqv2hS4zvkH5KHAZQpCKHK3N6jYgU7dEvqdYUHJOC/Xav89qpqHEjWb\nQ0NERGwRHOQG06BosyGNqoI+N0/KF1ea2cRWQIXykPT3Gd0nx9LxTWkL6WxW4K5X\nfxaAAcM21lbRgYyb4n8k9yHL4AUX5LIzLNvl/3LhAQKBgQD0+x7a9y85hfYSiIx4\nEYFmWErAwoBaF0qDJY7FyfYX2k6qkkKDMCVArGGGFOQACZ2KccgJTLOQtLUXKuOw\nq5WFoOF4EeiQdVj6cc14cdJ8NWJSS/MNd1WokXSBaH6UY1UPNVzwEg0My+Er6icT\ndveWZFmhhmR+V/o6Q9n3OG84zQKBgQDP6ClWTjMSlRQyzbThB/wa8vlOxi3x2/7O\nrPsvy65IDx3vROCbcEQetvf7WOrAdvMjvFyDMebXgR1GkNbsCV89VSmHAzrfTJC6\n1xNz56a5cwckqs00cZKix2kXg3Im8OT+4I3cs+YvlG4jxZOndhExbZ8XxL14/j/k\nyeddlmKoYQKBgDqx6ASicKghloF+QdmKqCwzP0XL1CDBr9KYLwrohpPUdECd5l20\nLVi/dGZBnxb7Nsmy1TCVNfiXs0OnvQHZOmvXze2MrOHfm7/1gDs5Wir0R2hcVhGF\n4/oNT5KpzJoU6o5IRMooKQRF3N8+rLoXKN7ZkDgJEQ7MWWGYXCLFXLCJAoGBAJ9I\nvTLUIqjf8mOh2ix1055J/NtvVg/wfl2VhbRulg27FzITUQmFj4sAnyjATMo717fP\nPgl9l+APmYBQw3h/DaqNro0z2kzt+gxLbynjloaKLDTZbvH4+WEg6dEL8c8HzEnB\nfK5UXcyiKWfanW81M6Ls23B4WLl0ATulvE6lQtzBAoGANnC9B1HPnbF2R40bxV8l\njCH+ccD4BkPZo/tzO4uW024a6EAIAEqJ+vFGz+Fkt3/JpWUumm63SExznugpqI79\nUfviQQ5gt7lymsnWSbw11vio3l4M/N+Z/oqz15mVavgRpsfXISvu0A9B8qeMXqcd\nXZAl0OBTYcMoVjoGKwPrKss=\n-----END PRIVATE KEY-----\n",
  "client_email": "firebase-adminsdk-t5k9v@next-283218.iam.gserviceaccount.com",
  "client_id": "110683360448258496353",
  "auth_uri": "https://accounts.google.com/o/oauth2/auth",
  "token_uri": "https://oauth2.googleapis.com/token",
  "auth_provider_x509_cert_url": "https://www.googleapis.com/oauth2/v1/certs",
  "client_x509_cert_url": "https://www.googleapis.com/robot/v1/metadata/x509/firebase-adminsdk-t5k9v%40next-283218.iam.gserviceaccount.com"
}
